mp01 – Introduction
…
list(
  count = nrow(q9),
  examples = q9 |> dplyr::arrange(show_title),
  most_recent = q9_most_recent |> dplyr::select(show_title, week)
)

$count
[1] 45

$examples
# A tibble: 45 × 3
   show_title      debut_rank min_rank
   <chr>                <dbl>    <dbl>
 1 Aftermath                4        1
 2 American Made            9        1
 3 Blood Red Sky            5        1
 4 Bullet Train             2        1
 5 Day Shift                2        1
 6 Despicable Me 2          2        1
 7 Despicable Me 4          2        1
 8 Dog Gone                 4        1
 9 Don't Move               3        1
10 End of the Road          2        1
# ℹ 35 more rows
…
